{
    "_id": "MLYkh9pZpjBI1wpN",
    "data": {
        "attributes": {
            "ac": {
                "value": 41
            },
            "hardness": 1,
            "hasHealth": true,
            "hp": {
                "details": "",
                "max": 4,
                "temp": 0,
                "tempmax": 0,
                "value": 4
            },
            "stealth": {
                "details": "<p>+32 (Legendary) to notice that the mirror isn't a regular mirror.</p>",
                "value": 32
            }
        },
        "creatureType": "",
        "details": {
            "description": "<p>This magic mirror replaces characters with evil duplicates from another dimension.</p>\n<p>The mirror can't be damaged while any mirror duplicate is alive.</p>",
            "disable": "<p>DC 42 Thievery (legendary) to retrieve a creature from the mirror within 10 minutes of the switch (possible only if their mirror duplicate is dead), DC 47 Thievery (master) to permanently disable the mirror once all mirror duplicates are dead, or dispel magic (9th level; counteract DC 40) to counteract the mirror for 1 minute and prevent additional replacements from appearing during that time.</p>",
            "isComplex": true,
            "level": {
                "value": 19
            },
            "reset": "<p>The mirror is always ready to absorb creatures into another dimension. 10 minutes after a creature is sucked into the mirror, if an ally doesn't rescue the creature using the Thievery skill, the creature reaches the mirror dimension, where it could be captured or killed. In the mirror dimension, it counts as a mirror duplicate, so the denizens of the other dimension can't destroy the mirror on their side while the absorbed creature is there. These dimensions are alternate realities, not planes, so even rituals like plane shift can't reach them.</p>",
            "routine": "<p>(1 action) The mirror absorbs another reflected creature into the mirror (DC 42 Reflex) and replaces it with a mirror duplicate. Mirror duplicates act on their own initiative, using the same statistics as the original creature, but with an evil alignment (changing only abilities that shift with the alignment change).</p>\n<p>Mirror duplicates are legendary in Intimidation and are permanently quickened, but they can use this additional action only to Demoralize.</p>\n<p>A mirror duplicate can spend 3 actions in contact with the mirror to return to its original dimension and release the creature it duplicated, but most mirror duplicates prefer not to.</p>"
        },
        "saves": {
            "fortitude": {
                "saveDetail": "",
                "value": 32
            },
            "reflex": {
                "saveDetail": "",
                "value": 27
            },
            "will": {
                "saveDetail": "",
                "value": 0
            }
        },
        "source": {
            "value": "Pathfinder #155: Lord of the Black Sands"
        },
        "statusEffects": [],
        "traits": {
            "ci": [],
            "di": {
                "custom": "",
                "selected": {},
                "value": []
            },
            "dr": [],
            "dv": [],
            "rarity": {
                "value": "common"
            },
            "size": {
                "value": "med"
            },
            "traits": {
                "custom": "",
                "value": [
                    "magical",
                    "mechanical"
                ]
            }
        }
    },
    "effects": [],
    "flags": {},
    "img": "systems/pf2e/icons/default-icons/hazard.svg",
    "items": [
        {
            "_id": "yItwou9rDi09XB5s",
            "data": {
                "actionCategory": {
                    "value": ""
                },
                "actionType": {
                    "value": "reaction"
                },
                "actions": {
                    "value": null
                },
                "description": {
                    "value": "<p data-visibility=\"gm\"><strong>Trigger</strong> A non-evil creature is reflected in the mirror;</p>\n<p><strong>Effect</strong> The mirror absorbs the creature into the mirror, replacing it with an evil mirror duplicate (<span data-pf2-check=\"reflex\" data-pf2-dc=\"42\" data-pf2-traits=\"arcane,conjuration,teleportation\" data-pf2-label=\"Reflection of Evil DC\" data-pf2-show-dc=\"gm\">Reflex</span> to avoid being absorbed into the mirror), and rolls initiative.</p>"
                },
                "requirements": {
                    "value": ""
                },
                "rules": [],
                "slug": null,
                "source": {
                    "value": ""
                },
                "traits": {
                    "custom": "",
                    "rarity": {
                        "value": "common"
                    },
                    "value": [
                        "arcane",
                        "conjuration",
                        "teleportation"
                    ]
                },
                "trigger": {
                    "value": ""
                },
                "weapon": {
                    "value": ""
                }
            },
            "effects": [],
            "flags": {},
            "img": "systems/pf2e/icons/actions/Reaction.webp",
            "name": "Reflection of Evil",
            "sort": 100000,
            "type": "action"
        }
    ],
    "name": "Imperious Darkside Mirror",
    "token": {
        "disposition": 0,
        "height": 1,
        "img": "systems/pf2e/icons/default-icons/hazard.svg",
        "name": "Imperious Darkside Mirror",
        "width": 1
    },
    "type": "hazard"
}
