{
    "_id": "zPXXUNE3m9VdrF9z",
    "data": {
        "attributes": {
            "ac": {
                "value": 0
            },
            "hardness": 0,
            "hasHealth": true,
            "hp": {
                "details": "",
                "max": 0,
                "temp": 0,
                "value": 0
            },
            "stealth": {
                "details": "<p>(master) to notice that the hairline cracks on the passage walls actually form runes.</p>",
                "value": 40
            }
        },
        "creatureType": "",
        "details": {
            "description": "<p>Nearly imperceptible runes set off an explosion at the point a thief is most unable to receive aid.</p>",
            "disable": "<p><span data-pf2-check=\"thievery\" data-pf2-dc=\"45\" data-pf2-traits=\"magical,trap\" data-pf2-label=\"Counteract the Runes DC\" data-pf2-show-dc=\"gm\">Thievery</span> (master) or <em>@Compendium[pf2e.spells-srd.Dispel Magic]{Dispel Magic}</em> (10th level, counteract DC 50) to counteract the runes</p>",
            "isComplex": false,
            "level": {
                "value": 20
            },
            "reset": "<p>The trap resets in 1 minute.</p>",
            "routine": ""
        },
        "saves": {
            "fortitude": {
                "saveDetail": "",
                "value": 0
            },
            "reflex": {
                "saveDetail": "",
                "value": 0
            },
            "will": {
                "saveDetail": "",
                "value": 0
            }
        },
        "source": {
            "value": "Pathfinder #156: The Apocalypse Prophet"
        },
        "statusEffects": [],
        "traits": {
            "ci": [],
            "di": {
                "custom": "",
                "selected": {},
                "value": []
            },
            "dr": [],
            "dv": [],
            "rarity": {
                "value": "common"
            },
            "size": {
                "value": "med"
            },
            "traits": {
                "custom": "",
                "value": [
                    "magical",
                    "trap"
                ]
            }
        }
    },
    "effects": [],
    "flags": {},
    "img": "systems/pf2e/icons/default-icons/hazard.svg",
    "items": [
        {
            "_id": "vGPRZAcP9sO1oSWb",
            "data": {
                "actionCategory": {
                    "value": "offensive"
                },
                "actionType": {
                    "value": "reaction"
                },
                "actions": {
                    "value": null
                },
                "description": {
                    "value": "<p data-visibility=\"gm\"><strong>Trigger</strong> A creature crosses a rune;</p>\n<p><strong>Effect</strong> The runes unleash a gout of fire roaring up the chute. Anyone in the chute and within 5 feet of its openings is dealt [[/r {8d10+44}[fire]]]{8d10+44 fire damage} (<span data-pf2-check=\"reflex\" data-pf2-dc=\"42\" data-pf2-traits=\"damaging-effect\" data-pf2-label=\"Explosion DC\" data-pf2-show-dc=\"gm\">basic Reflex</span> save).</p>\n<p>Immediately thereafter, the runes emanate a 4th-level <em>@Compendium[pf2e.spells-srd.Silence]{Silence}</em> effect for 1 minute, so anyone injured in the chute can't call out for help.</p>"
                },
                "requirements": {
                    "value": ""
                },
                "rules": [],
                "slug": null,
                "source": {
                    "value": ""
                },
                "traits": {
                    "custom": "",
                    "rarity": {
                        "value": "common"
                    },
                    "value": []
                },
                "trigger": {
                    "value": ""
                }
            },
            "effects": [],
            "flags": {},
            "img": "systems/pf2e/icons/actions/Reaction.webp",
            "name": "Explosion",
            "sort": 0,
            "type": "action"
        }
    ],
    "name": "Thief's Trap",
    "token": {
        "disposition": 0,
        "height": 1,
        "img": "systems/pf2e/icons/default-icons/hazard.svg",
        "name": "Thief's Trap",
        "width": 1
    },
    "type": "hazard"
}
