{
    "_id": "gQuQetoDwP3GLtQy",
    "data": {
        "activation": {
            "condition": "",
            "cost": 0,
            "type": ""
        },
        "autoDestroy": {
            "_deprecated": true,
            "value": true
        },
        "autoUse": {
            "_deprecated": true,
            "value": true
        },
        "baseItem": null,
        "brokenThreshold": {
            "value": 0
        },
        "bulkCapacity": {
            "value": ""
        },
        "charges": {
            "_deprecated": true,
            "max": 0,
            "value": 0
        },
        "collapsed": {
            "value": false
        },
        "consumableType": {
            "value": "other"
        },
        "consume": {
            "_deprecated": true,
            "value": ""
        },
        "containerId": {
            "value": null
        },
        "description": {
            "value": "<p><strong>Activate</strong> <span class=\"pf2-icon\">1</span> Interact</p>\n<hr />\n<p>While arachnophobes don't need to fear this contraption's spiderlike appearance, they should probably worry if it starts ticking. When you activate the spider bomb, you place it on the ground and the clockwork spider crawls 5 feet in a straight line, continuing to advance 5 feet in the same straight line at the end of each of your turns for the next 4 rounds (traveling a total of 25 feet). If it takes any damage during this time, its bulbous abdomen detonates in a raging flame, dealing [[/r {5d6}[fire]]]{5d6 fire damage} to all creatures in a <span data-pf2-effect-area=\"burst\" data-pf2-distance=\"5\">5-foot burst</span> (<span data-pf2-check=\"reflex\" data-pf2-traits=\"clockwork,consumable,gadget,fire\" data-pf2-label=\"Clockwork Spider Bomb Explosion DC\" data-pf2-dc=\"24\" data-pf2-show-dc=\"all\">basic Reflex</span>). You can also activate it a second time with a single-action command word activation, causing it to explode. The spider bomb has an AC of 10, 5 Hit Points, and +0 to all saving throws. After it detonates, the spider bomb is completely destroyed, regardless of the effects of its detonation. If it survives to the end of the 4-round duration without being detonated, the spider harmlessly loses its explosive charge and falls apart.</p>"
        },
        "duration": {
            "units": "",
            "value": null
        },
        "equipped": {
            "value": false
        },
        "equippedBulk": {
            "value": ""
        },
        "hardness": {
            "value": 0
        },
        "hp": {
            "value": 0
        },
        "identification": {
            "misidentified": {},
            "status": "identified",
            "unidentified": {
                "data": {
                    "description": {
                        "value": ""
                    }
                },
                "img": "",
                "name": ""
            }
        },
        "level": {
            "value": 8
        },
        "maxHp": {
            "value": 0
        },
        "negateBulk": {
            "value": "0"
        },
        "preciousMaterial": {
            "value": null
        },
        "preciousMaterialGrade": {
            "value": null
        },
        "price": {
            "value": "100 gp"
        },
        "quantity": {
            "value": 1
        },
        "range": {
            "long": null,
            "units": "",
            "value": null
        },
        "rules": [],
        "size": {
            "value": "med"
        },
        "source": {
            "value": "Pathfinder Lost Omens: The Grand Bazaar"
        },
        "spell": {
            "data": null,
            "heightenedLevel": null
        },
        "stackGroup": {
            "value": ""
        },
        "target": {
            "type": "",
            "units": "",
            "value": null
        },
        "traits": {
            "custom": "",
            "rarity": {
                "value": "uncommon"
            },
            "value": [
                "clockwork",
                "consumable",
                "gadget"
            ]
        },
        "usage": {
            "value": "held-in-one-hand"
        },
        "uses": {
            "autoDestroy": true,
            "autoUse": true,
            "max": 0,
            "per": null,
            "value": 0
        },
        "weight": {
            "value": "1"
        }
    },
    "effects": [],
    "flags": {},
    "img": "systems/pf2e/icons/default-icons/consumable.svg",
    "name": "Clockwork Spider Bomb",
    "type": "consumable"
}
