{
    "_id": "31tSOy1iHCjNNd4N",
    "data": {
        "baseItem": null,
        "brokenThreshold": {
            "value": 0
        },
        "bulkCapacity": {
            "value": ""
        },
        "collapsed": {
            "value": false
        },
        "containerId": {
            "value": ""
        },
        "description": {
            "value": "<p>Constructed of green material and decorated with a white Glyph of the Open Road, a dozen or more small pockets line the inside of this pack. The pack is enchanted so that each pocket contains common, mundane gear, each item worth no more than 5 gp, such as chalk, flint and steel, and string. It doesn't contain any armor, shields, weapons, or items made of any kind of precious material. Keep track of the exact value of the gear you retrieve from the pack. The pack empties after 45 gp worth of items of your choice are removed, after which it becomes a mundane backpack.</p>\n<hr />\n<p><strong>Activate</strong> 1 minute (Interact);</p>\n<p><strong>Frequency</strong> once per hour;</p>\n<p><strong>Effect</strong> You draw any number of pieces of mundane gear from the pack with a combined value of 5 gp or less.</p>"
        },
        "equipped": {
            "value": false
        },
        "equippedBulk": {
            "value": ""
        },
        "hardness": {
            "value": 0
        },
        "hp": {
            "value": 0
        },
        "identification": {
            "misidentified": {},
            "status": "identified",
            "unidentified": {
                "data": {
                    "description": {
                        "value": ""
                    }
                },
                "img": "",
                "name": ""
            }
        },
        "invested": {
            "value": false
        },
        "level": {
            "value": 7
        },
        "maxHp": {
            "value": 0
        },
        "negateBulk": {
            "value": "0"
        },
        "preciousMaterial": {
            "value": ""
        },
        "preciousMaterialGrade": {
            "value": ""
        },
        "price": {
            "value": "100 gp"
        },
        "quantity": {
            "value": 1
        },
        "rules": [],
        "size": {
            "value": "med"
        },
        "source": {
            "value": "Pathfinder Lost Omens: Pathfinder Society Guide"
        },
        "stackGroup": {
            "value": ""
        },
        "traits": {
            "custom": "",
            "rarity": {
                "value": "uncommon"
            },
            "value": [
                "conjuration",
                "invested",
                "magical"
            ]
        },
        "usage": {
            "value": "worn"
        },
        "weight": {
            "value": "-"
        }
    },
    "effects": [],
    "flags": {},
    "img": "systems/pf2e/icons/equipment/worn-items/other-worn-items/everyneed-pack.webp",
    "name": "Everyneed Pack (Greater)",
    "type": "equipment"
}
