{
    "_id": "TPQjZzF9yioMr9Bu",
    "data": {
        "baseItem": null,
        "brokenThreshold": {
            "value": 0
        },
        "bulkCapacity": {
            "value": ""
        },
        "collapsed": {
            "value": false
        },
        "containerId": {
            "value": null
        },
        "description": {
            "value": "<p>This set of hinged metal plates features studs on the inside of each plate to provide a texture for the pastry cakes you cook with it. You pour batter on the plates, close the device, and place it on a fire or stove to cook.</p>\n<p>Truly fit for emperors and demigods, this waffle iron is made of high-grade mithral. Although most metallurgists are certain that the much more affordable standard-grade mithral waffle iron maintains mithral's full non-stick properties, the super elite insist that only waffles made from high-grade mithral waffle irons conform to the most perfect shape and texture.</p>\n<p>Nadian has one high-grade mithral waffle iron for sale emblazoned with an archaic symbol associated with Milani from before she became a deity, supposedly used to make Milani herself waffles during her mortal life. As it's made of mithral, this is an uncommon item.</p>"
        },
        "equipped": {
            "value": false
        },
        "equippedBulk": {
            "value": ""
        },
        "hardness": {
            "value": 0
        },
        "hp": {
            "value": 0
        },
        "identification": {
            "misidentified": {},
            "status": "identified",
            "unidentified": {
                "data": {
                    "description": {
                        "value": ""
                    }
                },
                "img": "",
                "name": ""
            }
        },
        "invested": {
            "value": null
        },
        "level": {
            "value": 16
        },
        "maxHp": {
            "value": 0
        },
        "negateBulk": {
            "value": "0"
        },
        "preciousMaterial": {
            "value": null
        },
        "preciousMaterialGrade": {
            "value": null
        },
        "price": {
            "value": "6005 gp"
        },
        "quantity": {
            "value": 1
        },
        "rules": [],
        "size": {
            "value": "med"
        },
        "source": {
            "value": "Pathfinder Lost Omens: The Grand Bazaar"
        },
        "stackGroup": {
            "value": ""
        },
        "traits": {
            "custom": "",
            "rarity": {
                "value": "uncommon"
            },
            "value": []
        },
        "usage": {
            "value": "held-in-one-hand"
        },
        "weight": {
            "value": "1"
        }
    },
    "effects": [],
    "flags": {},
    "img": "systems/pf2e/icons/default-icons/equipment.svg",
    "name": "Waffle Iron (High-grade Mithral)",
    "type": "equipment"
}
