{
    "_id": "Y2tEkaZK5j2NySJu",
    "data": {
        "attributes": {
            "ac": {
                "value": 10
            },
            "hardness": 0,
            "hasHealth": true,
            "hp": {
                "details": "",
                "max": 10,
                "temp": 0,
                "value": 10
            },
            "stealth": {
                "details": "",
                "value": 8
            }
        },
        "creatureType": "",
        "details": {
            "description": "<p>An assortment of leaves and loose dirt cover a sudden drop in elevation.</p>",
            "disable": "<p><span data-pf2-check=\"nature\" data-pf2-traits=\"environmental\" data-pf2-label=\"Uncover Sinkhole DC\" data-pf2-dc=\"12\" data-pf2-show-dc=\"gm\">Nature</span> to remove the covering foliage</p>",
            "isComplex": false,
            "level": {
                "value": 0
            },
            "reset": "",
            "routine": ""
        },
        "saves": {
            "fortitude": {
                "saveDetail": "",
                "value": 0
            },
            "reflex": {
                "saveDetail": "",
                "value": 0
            },
            "will": {
                "saveDetail": "",
                "value": 0
            }
        },
        "source": {
            "value": "Pathfinder Bounty #2: Blood of the Beautiful"
        },
        "statusEffects": [],
        "traits": {
            "ci": [],
            "di": {
                "custom": "",
                "selected": {},
                "value": []
            },
            "dr": [],
            "dv": [],
            "rarity": {
                "value": "common"
            },
            "size": {
                "value": "med"
            },
            "traits": {
                "custom": "",
                "value": [
                    "environmental",
                    "trap"
                ]
            }
        }
    },
    "effects": [],
    "flags": {},
    "img": "systems/pf2e/icons/default-icons/hazard.svg",
    "items": [
        {
            "_id": "EVtx455nBAK5LnLs",
            "data": {
                "actionCategory": {
                    "value": "offensive"
                },
                "actionType": {
                    "value": "reaction"
                },
                "actions": {
                    "value": null
                },
                "description": {
                    "value": "<p data-visibility=\"gm\"><strong>Trigger</strong> A creature walks onto the sinkhole;</p>\n<p><strong>Effect</strong> The triggering creature falls in and takes falling damage ([[/r {10}[bludgeoning]]]{10 bludgeoning damage}). That creature can use the @Compendium[pf2e.actionspf2e.Grab an Edge]{Grab an Edge} reaction to avoid falling.</p>"
                },
                "requirements": {
                    "value": ""
                },
                "rules": [],
                "slug": null,
                "source": {
                    "value": ""
                },
                "traits": {
                    "custom": "",
                    "rarity": {
                        "value": "common"
                    },
                    "value": []
                },
                "trigger": {
                    "value": ""
                },
                "weapon": {
                    "value": ""
                }
            },
            "effects": [],
            "flags": {},
            "img": "systems/pf2e/icons/actions/Reaction.webp",
            "name": "Fall",
            "sort": 0,
            "type": "action"
        }
    ],
    "name": "Sinkhole",
    "token": {
        "disposition": 0,
        "height": 1,
        "img": "systems/pf2e/icons/default-icons/hazard.svg",
        "name": "Sinkhole",
        "width": 1
    },
    "type": "hazard"
}
