{
    "_id": "8aIe57gXJ94mPpW4",
    "data": {
        "actionCategory": {
            "value": "offensive"
        },
        "actionType": {
            "value": "action"
        },
        "actions": {
            "value": null
        },
        "description": {
            "value": "<p><strong>Frequency</strong> a number of times per day equal to your level</p>\n<hr />\n<p>You envenom your fangs. If the next fangs Strike you make before the end of your turn hits and deals damage, the Strike deals an additional [[/r {1d6}[poison]]]{1d6 poison damage}. On a critical failure, the poison is wasted as normal. At 12th level, this poison damage increases to 2d6.</p>\n<p>[[/r (1+(floor(@details.level.value/12)))d6 #poison]]{Levelled} poison damage</p>"
        },
        "requirements": {
            "value": ""
        },
        "rules": [],
        "source": {
            "value": "Pathfinder Lost Omens: The Mwangi Expanse"
        },
        "traits": {
            "custom": "",
            "rarity": {
                "value": "common"
            },
            "value": [
                "anadi"
            ]
        },
        "trigger": {
            "value": ""
        },
        "weapon": {
            "value": ""
        }
    },
    "effects": [],
    "flags": {},
    "img": "systems/pf2e/icons/actions/OneAction.webp",
    "name": "Anadi Venom",
    "type": "action"
}
