{
    "_id": "b6CanpXyUKJgxEwq",
    "data": {
        "actionCategory": {
            "value": ""
        },
        "actionType": {
            "value": "reaction"
        },
        "actions": {
            "value": null
        },
        "description": {
            "value": "<p><strong>Frequency</strong> once per day;</p>\n<p><strong>Trigger</strong> A creature that has blood and is not at its maximum Hit Points hits you with a melee Strike;</p>\n<hr />\n<p><strong>Effect</strong> You channel salt and brine from your blood into the creature's wounds. The creature must attempt a Fortitude save using your class DC or spell DC, whichever is higher. On a failure, the creature takes [[/r 1d6 #persistent acid]] @Compendium[pf2e.conditionitems.Persistent Damage]{Persistent Acid Damage} and is @Compendium[pf2e.conditionitems.Sickened]{Sickened 1} by the pain. On a critical failure, it instead takes [[/r 2d6 #persistent acid]] @Compendium[pf2e.conditionitems.Persistent Damage]{Persistent Acid Damage} and is @Compendium[pf2e.conditionitems.Sickened]{Sickened 2}.</p>"
        },
        "requirements": {
            "value": ""
        },
        "rules": [],
        "source": {
            "value": ""
        },
        "traits": {
            "custom": "",
            "rarity": {
                "value": "common"
            },
            "value": [
                "undine"
            ]
        },
        "trigger": {
            "value": ""
        },
        "weapon": {
            "value": ""
        }
    },
    "effects": [],
    "flags": {},
    "img": "systems/pf2e/icons/actions/Reaction.webp",
    "name": "Salt Wound",
    "type": "action"
}
