{
    "_id": "LHOd4aqzb4q9ZuEH",
    "data": {
        "description": {
            "value": "<p>You gain a +3 item bonus to Performance checks to play an instrument, orate, or sing.</p>"
        },
        "duration": {
            "expiry": "turn-start",
            "sustained": false,
            "unit": "unlimited",
            "value": -1
        },
        "level": {
            "value": 18
        },
        "rules": [
            {
                "key": "FlatModifier",
                "label": "Nosoi Charm (Play an instrument, orate or sing)",
                "predicate": {
                    "any": [
                        "action:play-an-instrument",
                        "action:orate",
                        "action:sing"
                    ]
                },
                "selector": "performance",
                "type": "item",
                "value": 3
            }
        ],
        "source": {
            "value": ""
        },
        "start": {
            "initiative": null,
            "value": 0
        },
        "target": null,
        "tokenIcon": {
            "show": false
        },
        "traits": {
            "custom": "",
            "rarity": {
                "value": "common"
            },
            "value": []
        }
    },
    "effects": [],
    "flags": {},
    "img": "systems/pf2e/icons/default-icons/effect.svg",
    "name": "Effect: Nosoi Charm (Greater) (Performance)",
    "type": "effect"
}
