{
    "_id": "RbslST0RZPXj6Eby",
    "content": "<h1>Ashukharma (The Divine Divide) [CN]</h1><p>Ashukharma is the Vudran goddess of canyons and cliffs. She is the jilted lover of Dinehdal, god of mountain peaks, and lover of Matravash, goddess of the Matra River; her tale draws prayers from scorned lovers and those dealing with rifts between themselves and their friends or families.</p><p></span><strong>Edicts</strong> Hinder travel, create and enforce physical and emotional boundaries, build defensive earthworks</p><p><strong>Anathema</strong> Destroy a natural barrier, pursue a personal relationship after being refused, betray a lover</p><p><strong>Follower Alignments</strong> CG, N, CN</span></p><p></span></p><h2>Devotee Benefits</h2><div><div><strong>Divine Ability</strong> Constitution or Intelligence</div><div><strong>Divine Font</strong> harm or heal</div><div><strong>Divine Skill</strong> Crafting</div><div><strong>Favored Weapon</strong> greatsword</div><div><strong>Domains</strong> earth, might, protection, repose</div><div><strong>Cleric Spells</strong> 1st: shattering gem, 4th: shape stone, 5th: wall of stone</div></div>",
    "flags": {},
    "name": "Ashukharma",
    "permission": {
        "default": 0
    }
}
