{
    "_id": "AHX89nhuVhmg8k6w",
    "content": "<h1>Dagon (The Shadow in the Sea) [CE]</h1><p>Dagon, the Shadow in the Sea, is the demon lord of deformity, the sea, and sea monsters. He holds court in an infinite ocean covered in disconcerting islands and deep-sea trenches filled with incomprehensible sunken cities. He appears as a massive creature with the lower body of an eel, a head reminiscent of deep-sea predators, and four thrashing tentacles in place of arms. Dagon began as a qlippoth, and no mortal understands his transformation into a demon lord, though it earned him the enmity of his former kin. Dagon is primarily worshipped by boggards, sahuagin, skum, and marsh giants, though desperate or depraved coastal villages have been known to pledge themselves to the demon lord.</p><p><strong>Edicts</strong> Swim underwater, improve your own strength, encourage the spread of dangerous sea monsters</p><p><strong>Anathema</strong> Break a sworn oath, settle in a land-locked area, share Dagon's secrets with outsiders</p><p><strong>Areas of Concern</strong> deformity, the sea, and sea monsters</p><p><strong>Follower Alignments</strong> CN, CE</span></p><h2>Devotee Benefits</h2><div><div><strong>Divine Ability</strong> Strength or Constitution</div><div><strong>Divine Font</strong> harm</div><div><strong>Divine Skill</strong> Athletics</div><div><strong>Favored Weapon</strong> trident</div><div><strong>Domains</strong> change, destruction, water, zeal</div><div><strong>Cleric Spells</strong> 1st: hydraulic push, 3rd: feet to fins, 6th: chain lightning</div></div>",
    "flags": {},
    "name": "Dagon",
    "permission": {
        "default": 0
    }
}
