{
    "_id": "H1VrZ1QX0d2aPXT8",
    "content": "<h1>Dammerich (The Weighted Swing) [LG]</h1><p></span></span><strong>Edicts</strong> Perform just executions, study local laws, oppose corrupt or bloodthirsty government officials</p><p><strong>Anathema</strong> Kill without thought, execute the innocent, mock the condemned, falsely incriminate another</p><p><strong>Follower Alignments</strong> LG</span></p><p></span></p><h2>Devotee Benefits</h2><div><div><strong>Divine Ability</strong> Constitution or Wisdom</div><div><strong>Divine Font</strong> harm or heal</div><div><strong>Divine Skill</strong> Athletics</div><div><strong>Favored Weapon</strong> greataxe</div><div><strong>Domains</strong> death, duty, truth, vigil</div><div><strong>Cleric Spells</strong> 1st: true strike, 3rd: paralyze, 4th: stoneskin</div></div>",
    "flags": {},
    "name": "Dammerich",
    "permission": {
        "default": 0
    }
}
