{
    "_id": "XHDlP7o1jNz9851v",
    "content": "<h1>Diomazul (The Serpent of Eighty Blades) [LE]</h1><p><strong>Edicts</strong> Remain celibate and detached from worldly pleasures, meditate, utterly destroy your enemies, erase all traces of defeated foes</p><p><strong>Anathema</strong> Provoke a fight, give mercy to anyone who provokes a fight with you</p><p><strong>Follower Alignments</strong> LN, LE</span></p><p></span></p><h2>Devotee Benefits</h2><div><div><strong>Divine Ability</strong> Strength or Dexterity</div><div><strong>Divine Font</strong> harm or heal</div><div><strong>Divine Skill</strong> Athletics</div><div><strong>Favored Weapon</strong> scimitar</div><div><strong>Domains</strong> destruction, earth, water, zeal</div><div><strong>Cleric Spells</strong> 1st: phantom pain, 2nd: slough skin, 4th: weapon storm</div></div>",
    "flags": {},
    "name": "Diomazul",
    "permission": {
        "default": 0
    }
}
