{
    "_id": "83jKKHQPoqVylmrF",
    "content": "<h1>Yaezhing (Minister of Blood) [LE]</h1><p><strong>Edicts</strong> Commit assassinations for hire, strike unseen, carry out punishment for convicted criminals</p><p><strong>Anathema</strong> Show mercy to a target, take credit for your assassinations, refuse to punish a lawfully convicted criminal</p><p><strong>Follower Alignments</strong> LE, NE</span></p><h2>Devotee Benefits</h2><div><div><strong>Divine Ability</strong> Dexterity or Intelligence</div><div><strong>Divine Font</strong> harm</div><div><strong>Divine Skill</strong> Stealth</div><div><strong>Favored Weapon</strong> shuriken</div><div><strong>Domains</strong> death, duty, pain, trickery</div><div><strong>Cleric Spells</strong> 1st: true strike, 2nd: invisibility, 6th: mislead</div></div>",
    "flags": {},
    "name": "Yaezhing",
    "permission": {
        "default": 0
    }
}
