{
    "_id": "1BAJxKpeQc8xGaxZ",
    "data": {
        "actionCategory": {
            "value": "interaction"
        },
        "actionType": {
            "value": "action"
        },
        "actions": {
            "value": 3
        },
        "description": {
            "value": "<p><strong>Frequency</strong> once per hour</p>\n<hr />\n<p>Your firsthand experience of the subjective nature of time and space has given you new observational insights. Your mind processes information so quickly that time appears to stop for all creatures but you. You can take up to 9 actions in 3 sets of up to 3 actions each. During this time, you can use purely mental and observational abilities such as Recall Knowledge, Seek, and Devise a Stratagem, and you can use an action to move a mental projection of yourself to a location within a 60- foot radius to observe objects more closely and from different angles, though you can't affect your surroundings in any way (for instance, you could move your mental projection more closely to a distant door to read a minute inscription on its handle, but you could not open it to observe the other side). When the duration elapses, time resumes its normal flow.</p>"
        },
        "featType": {
            "value": "class"
        },
        "level": {
            "value": 20
        },
        "location": "",
        "prerequisites": {
            "value": []
        },
        "rules": [],
        "source": {
            "value": "Pathfinder #168: King of the Mountain"
        },
        "traits": {
            "custom": "",
            "rarity": {
                "value": "uncommon"
            },
            "value": [
                "investigator"
            ]
        }
    },
    "effects": [],
    "flags": {},
    "img": "systems/pf2e/icons/default-icons/feats.webp",
    "name": "All the Time in the World",
    "type": "feat"
}
