{
    "_id": "6EgHimhCuS8L0xDE",
    "data": {
        "actionCategory": {
            "value": ""
        },
        "actionType": {
            "value": "passive"
        },
        "actions": {
            "value": null
        },
        "description": {
            "value": "<p><strong>Access</strong> You are from Dongun Hold or Alkenstar.</p>\n<hr />\n<p>A lifetime wielding firearms and explosive ordinance amid the chaos of battle has granted you great skill with volatile weapons. You become trained in simple and martial bombs and firearms.</p>"
        },
        "featType": {
            "value": "ancestry"
        },
        "level": {
            "value": 1
        },
        "location": "",
        "prerequisites": {
            "value": []
        },
        "rules": [],
        "source": {
            "value": ""
        },
        "traits": {
            "custom": "",
            "rarity": {
                "value": "uncommon"
            },
            "value": [
                "dwarf"
            ]
        }
    },
    "effects": [],
    "flags": {},
    "img": "systems/pf2e/icons/default-icons/feats.webp",
    "name": "Explosive Savant",
    "type": "feat"
}
