{
    "_id": "iJrjzLnLJkvQgrbS",
    "data": {
        "actionCategory": {
            "value": ""
        },
        "actionType": {
            "value": "reaction"
        },
        "actions": {
            "value": null
        },
        "description": {
            "value": "<p><strong>Frequency</strong> once per day</p>\n<p><strong>Trigger</strong> You critically hit a foe with a Strike with a slashing weapon.</p>\n<hr />\n<p>Choose either <em>@Compendium[pf2e.spells-srd.Lightning Bolt]{Lightning Bolt}</em> or <em>@Compendium[pf2e.spells-srd.Gust of Wind]{Gust of Wind}</em>. You Cast the chosen Spell as a 6th-level primal innate spell in the direction of the target of the triggering action.</p>"
        },
        "featType": {
            "value": "ancestry"
        },
        "level": {
            "value": 17
        },
        "location": "",
        "prerequisites": {
            "value": [
                {
                    "value": "Storm's Lash"
                }
            ]
        },
        "rules": [],
        "source": {
            "value": "Pathfinder Lost Omens: Ancestry Guide"
        },
        "traits": {
            "custom": "",
            "rarity": {
                "value": "common"
            },
            "value": [
                "tengu"
            ]
        }
    },
    "effects": [],
    "flags": {},
    "img": "systems/pf2e/icons/features/feats/feats.webp",
    "name": "Hurricane Swing",
    "type": "feat"
}
