{
    "_id": "jatfexNkXaTs9s5Q",
    "data": {
        "actionCategory": {
            "value": "defensive"
        },
        "actionType": {
            "value": "reaction"
        },
        "actions": {
            "value": null
        },
        "description": {
            "value": "<p><strong>Frequency</strong> once per day</p>\n<p><strong>Trigger</strong> You are attacked by a foe.</p>\n<hr />\n<p>The magic within you manifests as a natural reaction to threats. You gain the effects of <em>@Compendium[pf2e.spells-srd.Mirror Image]{Mirror Image}</em> but with two images instead of three. The tradition of this action matches the tradition of your gnome ancestry options.</p>"
        },
        "featType": {
            "value": "ancestry"
        },
        "level": {
            "value": 13
        },
        "location": "",
        "prerequisites": {
            "value": [
                {
                    "value": "at least one arcane or occult innate spell gained from a gnome heritage or gnome ancestry feat"
                }
            ]
        },
        "rules": [],
        "source": {
            "value": "Pathfinder Advanced Player's Guide"
        },
        "traits": {
            "custom": "",
            "rarity": {
                "value": "common"
            },
            "value": [
                "gnome",
                "illusion",
                "visual"
            ]
        }
    },
    "effects": [],
    "flags": {},
    "img": "systems/pf2e/icons/default-icons/feats.webp",
    "name": "Instinctive Obfuscation",
    "type": "feat"
}
