{
    "_id": "dNH8OHEvx3vI9NBQ",
    "data": {
        "actionCategory": {
            "value": ""
        },
        "actionType": {
            "value": "reaction"
        },
        "actions": {
            "value": null
        },
        "description": {
            "value": "<p><strong>Trigger</strong> A creature targets you with an attack and you can see the attacker.</p>\n<p><strong>Requirements</strong> You are not encumbered</p>\n<hr />\n<p>You deftly dodge out of the way, gaining a +2 circumstance bonus to AC against the triggering attack.</p>"
        },
        "featType": {
            "value": "class"
        },
        "level": {
            "value": 1
        },
        "location": "",
        "prerequisites": {
            "value": []
        },
        "rules": [
            {
                "key": "ToggleProperty",
                "label": "Use Nimble Dodge",
                "property": "flags.pf2e.rollOptions.all.nimble-dodge"
            },
            {
                "key": "FlatModifier",
                "predicate": {
                    "all": [
                        "nimble-dodge"
                    ]
                },
                "selector": "ac",
                "type": "circumstance",
                "value": 2
            }
        ],
        "source": {
            "value": "Pathfinder Advanced Player's Guide"
        },
        "traits": {
            "custom": "",
            "rarity": {
                "value": "common"
            },
            "value": [
                "rogue",
                "swashbuckler"
            ]
        }
    },
    "effects": [],
    "flags": {},
    "img": "systems/pf2e/icons/features/feats/feats.webp",
    "name": "Nimble Dodge",
    "type": "feat"
}
