{
    "_id": "4caP26xpkQajkaDp",
    "data": {
        "actionCategory": {
            "value": ""
        },
        "actionType": {
            "value": "passive"
        },
        "actions": {
            "value": null
        },
        "description": {
            "value": "<p>Your punches have incredible force and control. When you damage a target using One-Inch Punch, you can focus your ki to send the foe flying. If you do, the target must attempt a Fortitude save against your class DC.</p>\n<hr />\n<p><strong>Critical Success</strong> The target is unaffected.</p>\n<p><strong>Success</strong> The target is pushed back 5 feet.</p>\n<p><strong>Failure</strong> The target is pushed back 10 feet.</p>\n<p><strong>Critical Failure</strong> The target is pushed back 10 feet for each action you spent on One-Inch Punch.</p>"
        },
        "featType": {
            "value": "class"
        },
        "level": {
            "value": 16
        },
        "prerequisites": {
            "value": [
                {
                    "value": "One-Inch Punch"
                }
            ]
        },
        "rules": [],
        "source": {
            "value": "Pathfinder Advanced Player's Guide"
        },
        "traits": {
            "custom": "",
            "rarity": {
                "value": "common"
            },
            "value": [
                "monk"
            ]
        }
    },
    "effects": [],
    "flags": {},
    "img": "systems/pf2e/icons/features/feats/feats.webp",
    "name": "One-Millimeter Punch",
    "type": "feat"
}
