{
    "_id": "Mvay7CiSN8snJ7DK",
    "data": {
        "actionCategory": {
            "value": ""
        },
        "actionType": {
            "value": "passive"
        },
        "actions": {
            "value": null
        },
        "description": {
            "value": "<p>You have expanded your supply of near-infinite items. Choose a research field. Add one item from the list of options available to that field from perpetual infusions, or two items if you choose your own field.</p>\n<p>If you have @Compendium[pf2e.classfeatures.Perpetual Potency (Toxicologist)]{Perpetual Potency} or @Compendium[pf2e.classfeatures.Perpetual Perfection (Toxicologist)]{Perpetual Perfection}, you gain an additional item (or items if you chose your own field) appropriate to the field you chose, for instance a higher-level version of the bomb you chose or a new poison.</p>"
        },
        "featType": {
            "value": "class"
        },
        "level": {
            "value": 8
        },
        "prerequisites": {
            "value": [
                {
                    "value": "perpetual infusions"
                }
            ]
        },
        "rules": [],
        "source": {
            "value": "Pathfinder Advanced Player's Guide"
        },
        "traits": {
            "custom": "",
            "rarity": {
                "value": "common"
            },
            "value": [
                "alchemist"
            ]
        }
    },
    "effects": [],
    "flags": {},
    "img": "systems/pf2e/icons/features/feats/feats.webp",
    "name": "Perpetual Breadth",
    "type": "feat"
}
