{
    "_id": "2jy4uh04yz0ezz6Q",
    "data": {
        "actionCategory": {
            "value": ""
        },
        "actionType": {
            "value": "passive"
        },
        "actions": {
            "value": null
        },
        "description": {
            "value": "<p><strong>Frequency</strong> once per day</p>\n<p><strong>Trigger</strong> You have the dying condition and are about to attempt a recovery check.</p>\n<hr />\n<p>The magic that animates you strains to keep you alive. You're restored to 1 Hit Point, lose the dying and @Compendium[pf2e.conditionitems.Unconscious]{Unconscious} conditions, and can act normally on this turn. You gain or increase the wounded condition as normal when losing the dying condition in this way.</p>"
        },
        "featType": {
            "value": "ancestry"
        },
        "level": {
            "value": 13
        },
        "location": "",
        "prerequisites": {
            "value": []
        },
        "rules": [],
        "source": {
            "value": ""
        },
        "traits": {
            "custom": "",
            "rarity": {
                "value": "common"
            },
            "value": [
                "poppet"
            ]
        }
    },
    "effects": [],
    "flags": {},
    "img": "systems/pf2e/icons/default-icons/feats.webp",
    "name": "Reanimating Spark",
    "type": "feat"
}
