{
    "_id": "B4e8V5nExlScjojY",
    "data": {
        "actionCategory": {
            "value": ""
        },
        "actionType": {
            "value": "passive"
        },
        "actions": {
            "value": null
        },
        "description": {
            "value": "<p>You feel a connection to shokis, the rambling collectors of wayward souls, and might have found old texts written by one. You are trained in Diplomacy. If you were already trained in Diplomacy (from your background or class, for example), you instead become trained in a skill of your choice. You can also cast <em>@Compendium[pf2e.spells-srd.Disrupt Undead]{Disrupt Undead}</em> as a divine innate cantrip at will. A cantrip is heightened to a spell level equal to half your level rounded up.</p>"
        },
        "featType": {
            "value": "ancestry"
        },
        "level": {
            "value": 5
        },
        "location": "",
        "prerequisites": {
            "value": []
        },
        "rules": [],
        "source": {
            "value": "Pathfinder Lost Omens: Ancestry Guide"
        },
        "traits": {
            "custom": "",
            "rarity": {
                "value": "common"
            },
            "value": [
                "duskwalker"
            ]
        }
    },
    "effects": [],
    "flags": {},
    "img": "systems/pf2e/icons/features/feats/feats.webp",
    "name": "Shoki's Argument",
    "type": "feat"
}
