{
    "_id": "yYIyAbwpdkySiCMU",
    "data": {
        "actionCategory": {
            "value": ""
        },
        "actionType": {
            "value": "passive"
        },
        "actions": {
            "value": null
        },
        "description": {
            "value": "<p>You squirrel away useful objects and seem to retrieve them at just the right time. You gain the @Compendium[pf2e.feats-srd.Prescient Consumable]{Prescient Consumable} and @Compendium[pf2e.feats-srd.Prescient Planner]{Prescient Planner} feats, except that you always withdraw the objects from your cheek pouches. This means the object you retrieve must fit in your cheek pouches; this is generally an item of negligible Bulk unless you also have the @Compendium[pf2e.feats-srd.Cheek Pouches]{Cheek Pouches} feat.</p>"
        },
        "featType": {
            "value": "ancestry"
        },
        "level": {
            "value": 9
        },
        "location": "",
        "prerequisites": {
            "value": []
        },
        "rules": [],
        "source": {
            "value": "Pathfinder Lost Omens: Ancestry Guide"
        },
        "traits": {
            "custom": "",
            "rarity": {
                "value": "common"
            },
            "value": [
                "ratfolk"
            ]
        }
    },
    "effects": [],
    "flags": {},
    "img": "systems/pf2e/icons/features/feats/feats.webp",
    "name": "Uncanny Cheeks",
    "type": "feat"
}
