{
    "_id": "CUrxG9CzT1hSfuhP",
    "data": {
        "actionCategory": {
            "value": "interaction"
        },
        "actionType": {
            "value": "passive"
        },
        "actions": {
            "value": null
        },
        "description": {
            "value": "<p>You can produce a soft silk to weave into useful items. You gain the @Compendium[pf2e.feats-srd.Specialty Crafting (Weaving)]{Specialty Crafting (Weaving)} feat.</p>\n<p>You can use your webbing to @Compendium[pf2e.actionspf2e.Craft]{Craft} simple, nonconsumable threaded items, such as clothing and rope, at zero cost as long as their base Price is 1 sp or less. These items have no resale value, and they naturally degrade after 24 hours without regular (if minor) maintenance. You can maintain up to 10 such items at a time; if you create a new one, your oldest creation breaks down from neglect.</p>\n<p>These temporary items take you only 1 day to Craft instead of 4. If you're an expert in Crafting, you can Craft these items in 1 hour; if you're a master, you can Craft them in 10 minutes; if you're legendary, you can Craft them in 1 minute.</p>"
        },
        "featType": {
            "value": "ancestry"
        },
        "level": {
            "value": 1
        },
        "location": "",
        "prerequisites": {
            "value": []
        },
        "rules": [],
        "source": {
            "value": "Pathfinder Lost Omens: The Mwangi Expanse"
        },
        "traits": {
            "custom": "",
            "rarity": {
                "value": "common"
            },
            "value": [
                "anadi"
            ]
        }
    },
    "effects": [],
    "flags": {},
    "img": "systems/pf2e/icons/default-icons/feats.webp",
    "name": "Web Weaver",
    "type": "feat"
}
