{
    "_id": "6BjslHgY01cNbKp5",
    "data": {
        "description": {
            "value": "<p>Granted by <em>@Compendium[pf2e.spells-srd.Armor of Bones]{Armor of Bones}</em></p>"
        },
        "duration": {
            "expiry": "turn-start",
            "sustained": false,
            "unit": "minutes",
            "value": 1
        },
        "level": {
            "value": 3
        },
        "rules": [
            {
                "key": "Resistance",
                "type": "cold",
                "value": "(@item.level.value)"
            },
            {
                "key": "Resistance",
                "type": "electricity",
                "value": "(@item.level.value)"
            },
            {
                "key": "Resistance",
                "type": "fire",
                "value": "(@item.level.value)"
            },
            {
                "key": "Resistance",
                "type": "piercing",
                "value": "(@item.level.value)"
            },
            {
                "key": "Resistance",
                "type": "slashing",
                "value": "@item.level.value"
            },
            {
                "key": "Resistance",
                "type": "electricity",
                "value": "@item.level.value"
            },
            {
                "key": "Resistance",
                "type": "fire",
                "value": "@item.level.value"
            },
            {
                "key": "Resistance",
                "type": "piercing",
                "value": "@item.level.value"
            },
            {
                "key": "Resistance",
                "type": "slashing",
                "value": "@item.level.value"
            }
        ],
        "source": {
            "value": "Pathfinder Advanced Player's Guide"
        },
        "start": {
            "initiative": null,
            "value": 0
        },
        "target": null,
        "tokenIcon": {
            "show": true
        },
        "traits": {
            "custom": "",
            "rarity": {
                "value": "common"
            },
            "value": []
        }
    },
    "effects": [],
    "flags": {},
    "img": "systems/pf2e/icons/spells/armor-of-bones.webp",
    "name": "Spell Effect: Armor of Bones",
    "type": "effect"
}
