{
    "_id": "FgRpddPORsRFwNoX",
    "data": {
        "ability": {
            "value": ""
        },
        "area": {
            "areaType": "",
            "value": ""
        },
        "autoHeightenLevel": {
            "value": null
        },
        "category": {
            "value": "spell"
        },
        "components": {
            "focus": false,
            "material": false,
            "somatic": true,
            "verbal": true
        },
        "cost": {
            "value": ""
        },
        "damage": {
            "value": {}
        },
        "description": {
            "value": "<p>You call forth three illusory images of yourself, and each of the four of you takes on a different color, your colors all shifting each time someone attacks you. This has the effects of <em>@Compendium[pf2e.spells-srd.Mirror Image]{Mirror Image}</em>, except that whenever a foe destroys one of the images, roll [[/r 1d4]]{1d4} to see which color the image was when it was destroyed. The attacker takes the corresponding effect.</p>\n<ol>\n<li><strong>Red</strong> [[/r {5}[fire]]]{5 fire damage} and [[/r {5}[mental]]]{5 mental damage}.</li>\n<li><strong>Orange</strong> [[/r {5}[acid]]]{5 acid damage} and [[/r {5}[mental]]]{5 mental damage}.</li>\n<li><strong>Yellow</strong> [[/r {5}[electricity]]]{5 electricity damage} and [[/r {5}[mental]]]{5 mental damage}.</li>\n<li><strong>Green</strong> [[/r 5 #poison]]{5 poison damage} and [[/r {5}[mental]]]{5 mental damage}, plus it's @Compendium[pf2e.conditionitems.Frightened]{Frightened 1}.</li>\n</ol>"
        },
        "duration": {
            "value": "1 minute"
        },
        "hasCounteractCheck": {
            "value": false
        },
        "level": {
            "value": 6
        },
        "location": {
            "value": ""
        },
        "materials": {
            "value": ""
        },
        "prepared": {
            "value": ""
        },
        "range": {
            "value": ""
        },
        "rules": [],
        "save": {
            "basic": "",
            "value": ""
        },
        "school": {
            "value": "illusion"
        },
        "source": {
            "value": "Pathfinder Secrets of Magic"
        },
        "spellType": {
            "value": "utility"
        },
        "sustained": {
            "value": false
        },
        "target": {
            "value": ""
        },
        "time": {
            "value": "2"
        },
        "traditions": {
            "custom": "",
            "value": [
                "arcane",
                "occult"
            ]
        },
        "traits": {
            "custom": "",
            "rarity": {
                "value": "common"
            },
            "value": [
                "visual"
            ]
        }
    },
    "effects": [],
    "flags": {},
    "img": "systems/pf2e/icons/spells/chromatic-image.webp",
    "name": "Chromatic Image",
    "type": "spell"
}
