{
    "_id": "uiv8FKuxE8HOWTxW",
    "data": {
        "ability": {
            "value": ""
        },
        "area": {
            "areaType": "",
            "value": ""
        },
        "autoHeightenLevel": {
            "value": null
        },
        "category": {
            "value": "spell"
        },
        "components": {
            "focus": false,
            "material": true,
            "somatic": true,
            "verbal": true
        },
        "cost": {
            "value": ""
        },
        "damage": {
            "value": {}
        },
        "description": {
            "value": "<p>Upon casting this spell, the armor you're wearing is whisked away into an extradimensional space that's linked to you. If the armor is magical and invested by you, it remains invested while in this space, though you don't gain its benefits. You then gain the @Compendium[pf2e.actionspf2e.Armor Up!]{Armor Up!} action; once you use the action, the spell ends. If the action hasn't been used by the time the spell's duration ends, the extradimensional space collapses, ejecting the armor's pieces on the ground under you.</p>"
        },
        "duration": {
            "value": "24 hours"
        },
        "hasCounteractCheck": {
            "value": false
        },
        "level": {
            "value": 2
        },
        "location": {
            "value": ""
        },
        "materials": {
            "value": ""
        },
        "range": {
            "value": ""
        },
        "rules": [],
        "save": {
            "basic": "",
            "value": ""
        },
        "school": {
            "value": "conjuration"
        },
        "source": {
            "value": "Pathfinder Secrets of Magic"
        },
        "spellType": {
            "value": "utility"
        },
        "sustained": {
            "value": false
        },
        "target": {
            "value": ""
        },
        "time": {
            "value": "10 minutes"
        },
        "traditions": {
            "custom": "",
            "value": [
                "arcane",
                "divine",
                "occult",
                "primal"
            ]
        },
        "traits": {
            "custom": "",
            "rarity": {
                "value": "common"
            },
            "value": [
                "contingency",
                "extradimensional"
            ]
        }
    },
    "effects": [],
    "flags": {},
    "img": "systems/pf2e/icons/spells/instant-armor.webp",
    "name": "Instant Armor",
    "type": "spell"
}
