{
    "_id": "4nEY2BcV85wavKLO",
    "data": {
        "ability": {
            "value": ""
        },
        "area": {
            "areaType": "",
            "value": ""
        },
        "autoHeightenLevel": {
            "value": null
        },
        "category": {
            "value": "spell"
        },
        "components": {
            "focus": false,
            "material": false,
            "somatic": true,
            "verbal": true
        },
        "cost": {
            "value": ""
        },
        "damage": {
            "value": {}
        },
        "description": {
            "value": "<p>You wrap the target in armor made of multicolored light. It functions as <em>@Compendium[pf2e.spells-srd.Chromatic Armor]{Chromatic Armor}</em> that is all colors (granting resistance 5 to acid, electricity, fire, force, mental, poison, and sonic). An attacker that critically fails on its saving throw against the spell is @Compendium[pf2e.conditionitems.Blinded]{Blinded} rather than @Compendium[pf2e.conditionitems.Dazzled]{Dazzled}.</p>\n<hr />\n<p><strong>Heightened (9th)</strong> The resistances increase to 10 each.</p>"
        },
        "duration": {
            "value": "1 minute"
        },
        "hasCounteractCheck": {
            "value": false
        },
        "level": {
            "value": 7
        },
        "location": {
            "value": ""
        },
        "materials": {
            "value": ""
        },
        "range": {
            "value": "touch"
        },
        "rules": [],
        "save": {
            "basic": "",
            "value": ""
        },
        "school": {
            "value": "abjuration"
        },
        "source": {
            "value": "Pathfinder Secrets of Magic"
        },
        "spellType": {
            "value": "utility"
        },
        "sustained": {
            "value": false
        },
        "target": {
            "value": "1 willing creature"
        },
        "time": {
            "value": "2"
        },
        "traditions": {
            "custom": "",
            "value": [
                "arcane",
                "occult"
            ]
        },
        "traits": {
            "custom": "",
            "rarity": {
                "value": "common"
            },
            "value": []
        }
    },
    "effects": [],
    "flags": {},
    "img": "systems/pf2e/icons/spells/prismatic-armor.webp",
    "name": "Prismatic Armor",
    "type": "spell"
}
