{
    "_id": "Rgio0hasm2epEMfh",
    "data": {
        "description": {
            "value": "<p>The weapon can harm creatures without physical form. A ghost touch weapon is particularly effective against incorporeal creatures, which almost always have a specific vulnerability to ghost touch weapons. Incorporeal creatures can touch, hold, and wield ghost touch weapons (unlike most physical objects).</p>"
        },
        "duration": {
            "expiry": "turn-start",
            "sustained": false,
            "unit": "unlimited",
            "value": -1
        },
        "level": {
            "value": 1
        },
        "rules": [
            {
                "key": "EffectTarget",
                "scope": "weapon"
            },
            {
                "key": "DamageDice",
                "selector": "{item|data.target}-damage",
                "traits": [
                    "ghostTouch"
                ]
            }
        ],
        "source": {
            "value": ""
        },
        "start": {
            "initiative": null,
            "value": 0
        },
        "target": null,
        "tokenIcon": {
            "show": true
        },
        "traits": {
            "custom": "",
            "rarity": {
                "value": "common"
            },
            "value": []
        }
    },
    "effects": [],
    "flags": {},
    "img": "systems/pf2e/icons/equipment/runes/weapon-property-runes/weapon-property-runes.webp",
    "name": "Effect: Blade Ally Ghost Touch Rune",
    "type": "effect"
}
